<?xml version="1.0" encoding="UTF-8"?>
<svg width="24px" height="15px" viewBox="0 0 24 15" version="1.1" xmlns="http://www.w3.org/2000/svg" xmlns:xlink="http://www.w3.org/1999/xlink">
    <!-- Generator: sketchtool 48.2 (47327) - http://www.bohemiancoding.com/sketch -->
    <title>E7F9F811-2362-4F3F-8618-5DABB8BD73EE</title>
    <desc>Created with sketchtool.</desc>
    <defs></defs>
    <g id="1.-Главная" stroke="none" stroke-width="1" fill="none" fill-rule="evenodd" transform="translate(-1734.000000, -589.000000)">
        <g id="Group-16" transform="translate(1734.000000, 589.000000)" fill="#717171">
            <g id="Стрелка">
                <g id="Shape">
                    <g transform="translate(12.000000, 7.500000) rotate(270.000000) translate(-12.000000, -7.500000) translate(4.500000, -4.500000)" fill-rule="nonzero">
                        <polygon points="0 21.18 9.27125506 12 0 2.82 2.85425101 0 15 12 2.85425101 24"></polygon>
                    </g>
                </g>
            </g>
        </g>
    </g>
</svg>